\relax 
\citation{eddy}
\citation{shen-y}
\citation{lim}
\citation{shen-h}
\citation{vazquez}
\citation{wang}
\@writefile{toc}{\contentsline {section}{\numberline {I}Introduction}{1}}
\citation{kalman-1}
\citation{kalman-2}
\citation{lim}
\citation{lim}
\citation{vazquez}
\citation{wang}
\citation{shen-h}
\citation{lim}
\citation{lucas}
\citation{vazquez}
\citation{wang}
\citation{shen-h}
\citation{wang}
\citation{shen-h}
\citation{shen-y}
\citation{pan}
\@writefile{lof}{\contentsline {figure}{\numberline {1}{\ignorespaces General model of video stabilization algorithms.}}{2}}
\newlabel{fig1}{{1}{2}}
\@writefile{toc}{\contentsline {section}{\numberline {II}Related Work}{2}}
\citation{harris}
\citation{harris}
\citation{lim}
\citation{fleet}
\@writefile{toc}{\contentsline {section}{\numberline {III}System Designing}{3}}
\@writefile{toc}{\contentsline {subsection}{\numberline {\unhbox \voidb@x \hbox {III-A}}Motion Estimation}{3}}
\@writefile{lof}{\contentsline {figure}{\numberline {2}{\ignorespaces Removing boundary and partition for detecting the best corners in each area.}}{3}}
\newlabel{fig2}{{2}{3}}
\citation{lucas}
\citation{zitnick}
\citation{kalman-1}
\citation{kalman-2}
\@writefile{toc}{\contentsline {subsection}{\numberline {\unhbox \voidb@x \hbox {III-B}}Motion Compensation}{4}}
\@writefile{lof}{\contentsline {figure}{\numberline {3}{\ignorespaces Algorithm Model of Kalman Filter.}}{4}}
\newlabel{fig3}{{3}{4}}
\citation{eddy}
\@writefile{toc}{\contentsline {subsection}{\numberline {\unhbox \voidb@x \hbox {III-C}}Image Composition}{5}}
\@writefile{lof}{\contentsline {figure}{\numberline {4}{\ignorespaces Options for processing empty image areas.}}{5}}
\newlabel{fig4}{{4}{5}}
\@writefile{toc}{\contentsline {subsection}{\numberline {\unhbox \voidb@x \hbox {III-D}}System Modeling}{5}}
\@writefile{lof}{\contentsline {figure}{\numberline {5}{\ignorespaces System modelingƯ}}{5}}
\newlabel{fig5}{{5}{5}}
\@writefile{toc}{\contentsline {section}{\numberline {IV}Experiments}{5}}
\@writefile{toc}{\contentsline {subsection}{\numberline {\unhbox \voidb@x \hbox {IV-A}}Evaluation of the Effectiveness of the Solutions for Speeding Up Corner Detection}{5}}
\@writefile{lof}{\contentsline {figure}{\numberline {6}{\ignorespaces Predicted Trajectory in cases of Different Partition about Number of Partitions.}}{6}}
\newlabel{fig6}{{6}{6}}
\@writefile{lot}{\contentsline {table}{\numberline {I}{\ignorespaces The Processing Speed of the both System.}}{6}}
\newlabel{tab1}{{I}{6}}
\@writefile{toc}{\contentsline {subsection}{\numberline {\unhbox \voidb@x \hbox {IV-B}}Evaluation of the Effectiveness of the Alternative Corner Detection by Using Matching Result}{6}}
\@writefile{lof}{\contentsline {figure}{\numberline {7}{\ignorespaces Trajectories and Accurate Predicted Trajectories of Camera.}}{6}}
\newlabel{fig7}{{7}{6}}
\@writefile{lof}{\contentsline {figure}{\numberline {8}{\ignorespaces The Predicted Trajectories with the Difference Iterations of Corner Detection.}}{6}}
\newlabel{fig8}{{8}{6}}
\@writefile{lot}{\contentsline {table}{\numberline {II}{\ignorespaces The Processing Speed of System with the Different Numbers of Iteration.}}{6}}
\newlabel{tab2}{{II}{6}}
\@writefile{toc}{\contentsline {subsection}{\numberline {\unhbox \voidb@x \hbox {IV-C}}Evaluation of System Performance}{6}}
\bibcite{eddy}{1}
\bibcite{shen-y}{2}
\bibcite{lim}{3}
\bibcite{shen-h}{4}
\bibcite{vazquez}{5}
\bibcite{wang}{6}
\bibcite{pan}{7}
\bibcite{lucas}{8}
\bibcite{harris}{9}
\bibcite{fleet}{10}
\bibcite{zitnick}{11}
\bibcite{kalman-1}{12}
\bibcite{kalman-2}{13}
\@writefile{toc}{\contentsline {section}{\numberline {V}Conclusion}{7}}
\@writefile{toc}{\contentsline {section}{References}{7}}
